{
  "type": "service_account",
  "project_id": "koobilo-345806",
  "private_key_id": "858ef816eadca0973df307575251fe258d6896f9",
  "private_key": "-----BEGIN PRIVATE KEY-----\nMIIEvQIBADANBgkqhkiG9w0BAQEFAASCBKcwggSjAgEAAoIBAQCO40g8g3lDcOeS\nug2EN8YgM6XzMKWeRkNSh1xc+tUB1hfz3ZS5OChMB/WtK+OjwHyIUcx/V07o8113\nIUwPYQQ5pFw7G/hGNhhuM1i+8uOhGdZ5pPnGbaU7aAF8bzfAFI9uvKY7sModdULD\nxrBPHsr3aP+zNFOIepsqwBsqin3+v0tcuflPgwhDayANUlAqpAbu//t8Q7znURHI\nlHmbTtsLyUj0PSjjOBrYCbZ2KWIacvtoNMDtcMMPDV5op87DtjYCyHQ0kaNm2L/p\nvvCJFFjNYEkqsPGkdE4mcUdLM+d0rmo9zAjraTm393wTdMMT89fHfVK3XWmFCyv6\nJU1PepMlAgMBAAECggEACmup63vdHp1/zfQSo0dcBCIwIpW0JmBSbZTgmAlU+n7O\nHWNWAtIFIlJcSOZQAjO6AUkR5GGOKDADa3o6rU5ye++wKEFocFpmmrbU7IwTLL8R\nJKry6lU5vSTfIt+Ljc8SDM3mQ6knfFF+bn+xgPuqarO2HjAdPXFPmqUK9iXGfYsD\nAmCdt5NR60GtuY+GcQVYI5ePOxUixBYAc3FOW15j2S2bCWaDZVUqIsEhGfjFAB1Y\n24OPlENuWIFNxS3L+4kHRNMC7p82ljYbeJ4miO3MF4WR0HZOrmoV2lL9P2UtXJU6\n0mYZ+Dio6XI3Hqf3JAD7Gk3vmAKVjh5mu/nXLCxesQKBgQDBxEltdfhVYShwo9sx\nWtEfYIWgAnk6uOeW5mIfwpNpO8LBLtlojq5/W9MIiTiVSO77s/seBaK065p1wB+x\n0YpHlsVZhLLFXoI7P8VThhYO+vIuNSSqBhuJpp9Yz51qi/VlwO50lWZHLGjZvJRb\nBHRSXG3hPZJu/0eYksUCV1yoDQKBgQC8x6y33hezhcDnvxkC+90E6Xgk3JESQF4m\nT+DJYVsZ/nCEqgRJq/KXOzqETWmw8hAQsM0x5h39pQ+kvhY7PozxWVSqYw4EfoMn\nBn8+GG1ZJoOQ0iMMooKjiWOrkCji2b9KFbWFpIbPZxnyEstryOWT+MiWCOa4Y6Wy\nLorydQV5eQKBgE3xIQAw5fWiIVw97RvLRjdy4g1dMVqXqkCe53WTFSzNZyfCKp3O\nVw7P5vGWEPar4cXJvgdziOFxrC4VXCpw+UiWs0exAyA1RfmDS2KvmwvnkadYpSjn\nUAhsx8g3q0CCj/GgS8sFlaCnkn2TR7Hc9tVybJif5dlUQn5y+2BXt+O5AoGBAJow\nHIoxA/rFDEI8exlMzcDtUAwLexIFMODp7ReORPJ+NzikBMyHfKS445qb/+9eRnDb\ndz2CToyU/Kn59/57oHKgG97u+MwC6Ow/Cj6VhPqD0oG+oJH5Sep4lMfT/xEJ+Ity\nH8kAEHvmIfLuFuf6NkkdsfeZXZjNCtD14tcVbVtBAoGAcq4iRrQgXMwxsc7ZC62P\nzDE1Cf4yU7qCNcpGppkpr9FlZA5Q3PyT9yywA6MuEX1Au+lKelLyT4Y9nFY8dGze\n8WiuSjxHF19Pw2xc0CsWg0OXzHNsmL1mqeeSy1KO5ZohxGSMN7cAg7h0/oueNTTr\n3//xIJ+Z705SQf14PkvUCyI=\n-----END PRIVATE KEY-----\n",
  "client_email": "firebase-adminsdk-lhasv@koobilo-345806.iam.gserviceaccount.com",
  "client_id": "112585551008386941469",
  "auth_uri": "https://accounts.google.com/o/oauth2/auth",
  "token_uri": "https://oauth2.googleapis.com/token",
  "auth_provider_x509_cert_url": "https://www.googleapis.com/oauth2/v1/certs",
  "client_x509_cert_url": "https://www.googleapis.com/robot/v1/metadata/x509/firebase-adminsdk-lhasv%40koobilo-345806.iam.gserviceaccount.com"
}
